{
    "startPage": "1",
    "endPage": "2147483647",
    "removeQuotes": "false",
    "titleDescriptor": "(?m)(?<!((die)|(das)))$\\r\\n[ _\\.\\d]*(((Thüringer)|(Erste(r|s)?)|(Zweite(r|s)?)|(Dritte(r|s)?)|(Vierte(r|s)?)|(Fü|unfte(r|s)?)|(Sechste(r|s)?)|(Siebte(r|s)?)|(Achte(r|s)?)|(Neunte(r|s)?)|(Zehnte(r|s)?)|(Elfte(r|s)?)|(Zwö|olfte(r|s)?)|(Dreizehnte(r|s)?)|(Vierzehnte(r|s)?)|(Fü|unfzehnte(r|s)?)|(Sechzehnte(r|s)?)|(Siebzehnte(r|s)?)|(Achtzehnte(r|s)?)|(Neunzehnte(r|s)?)|(Zwanzigste(r|s)?)|(ERSTE(R|S)?)|(ZWEITE(R|S)?)|(DRITTE(R|S)?)|(VIERTE(R|S)?)|(FÜ|UNFTE(R|S)?)|(SECHSTE(R|S)?)|(SIEBTE(R|S)?)|(ACHTE(R|S)?)|(NEUNTE(R|S)?)|(ZEHNTE(R|S)?)|(ELFTE(R|S)?)|(ZWÖ|OLFTE(R|S)?)|(DREIZEHNTE(R|S)?)|(VIERZEHNTE(R|S)?)|(FÜ|UNFZEHNTE(R|S)?)|(SECHZEHNTE(R|S)?)|(SIEBZEHNTE(R|S)?)|(ACHTZEHNTE(R|S)?)|(NEUNZEHNTE(R|S)?)|(ZWANZIGSTE(R|S)?)) )?((((v)|(V))erordnung)|(((g)|(G))esetz))(?!((-)|( vom )))\\b",
    "closureDescriptor": "(?m)^\\w+, den \\d\\d?\\. ((Januar)|(Februar)|(M((ä)|(a))rz)|(April)|(Mai)|(Juni)|(Juli)|(August)|(September)|(Oktober)|(November)|(Dezember)) \\d\\d\\d\\d",
    "sectionDescriptor": "(?m)\\r\\n[ _\\.\\d]*((Artikel)|(§)) ?((\\d)|(I)|(l))+\\)?((\\.)|(\\,)|( ))*(?!\\w)$",
    "subsectionDescriptor": "(?m)$\\r\\n(\\d+\\. (?!((Januar)|(Februar)|(M((ä)|(a))rz)|(April)|(Mai)|(Juni)|(Juli)|(August)|(September)|(Oktober)|(November)|(Dezember))))"
}
